<svg width="233" height="247" xmlns="http://www.w3.org/2000/svg">
 <!-- Created with Method Draw - http://github.com/duopixel/Method-Draw/ -->

 <g>
  <title>background</title><!--
  <rect fill="#0fffff" id="canvas_background" height="249" width="235" y="-1" x="-1"/>-->
  <g display="none" overflow="visible" y="0" x="0" height="100%" width="100%" id="canvasGrid">
   <rect fill="url(#gridpattern)" stroke-width="0" y="0" x="0" height="100%" width="100%"/>
  </g>
 </g>
 <g>
  <title>Layer 1</title>
  <g stroke="null" id="svg_27">
   <g stroke="null" transform="matrix(0.4820433746521777,0,0,0.4820433746521777,-1483.3424108533654,-1054.915292202495) " id="svg_5">
    <path stroke="null" fill="#ffffff" id="svg_6" d="m3278.876344,2354.56715c4.142,0 7.5,-3.358 7.5,-7.5l0,-24c0,-4.142 -3.358,-7.5 -7.5,-7.5s-7.5,3.358 -7.5,7.5l0,24c0,4.142 3.358,7.5 7.5,7.5z"/>
    <path stroke="null" fill="#ffffff" id="svg_7" d="m3358.876344,2354.56715c4.142,0 7.5,-3.358 7.5,-7.5l0,-24c0,-4.142 -3.358,-7.5 -7.5,-7.5s-7.5,3.358 -7.5,7.5l0,24c0,4.142 3.358,7.5 7.5,7.5z"/>
    <path stroke="null" fill="#ffffff" id="svg_8" d="m3549.584344,2639.71315l-7.208,-14.416l0,-6.23c0,-10.336 -6.71,-19.128 -16,-22.266l0,-27.469c9.29,-3.138 16,-11.93 16,-22.266s-6.71,-19.128 -16,-22.266l0,-9.733c0,-19.585 -14.33,-35.878 -33.054,-38.965c-2.975,-9.568 -11.912,-16.535 -22.446,-16.535l-16,0c-0.064,0 -0.125,0.008 -0.188,0.01c-6.626,-5.023 -14.875,-8.01 -23.812,-8.01l-64.5,0l0,-33l72.5,0c12.958,0 23.5,-10.542 23.5,-23.5c0,-10.394 -6.785,-19.228 -16.157,-22.319c-1.766,-36.004 -18.536,-68.13 -44.175,-90.243l18.393,-18.393c3.147,1.568 6.691,2.455 10.439,2.455c12.958,0 23.5,-10.542 23.5,-23.5s-10.542,-23.5 -23.5,-23.5s-23.5,10.542 -23.5,23.5c0,3.748 0.887,7.292 2.454,10.439l-19.807,19.807c-20.334,-13.725 -44.821,-21.746 -71.147,-21.746s-50.813,8.021 -71.148,21.746l-19.807,-19.807c1.568,-3.147 2.455,-6.69 2.455,-10.439c0,-12.958 -10.542,-23.5 -23.5,-23.5s-23.5,10.542 -23.5,23.5s10.542,23.5 23.5,23.5c3.748,0 7.292,-0.887 10.439,-2.454l18.393,18.393c-25.639,22.113 -42.409,54.238 -44.175,90.243c-9.371,3.09 -16.157,11.924 -16.157,22.318c0,12.958 10.542,23.5 23.5,23.5l72.5,0l0,33l-64.5,0c-8.936,0 -17.186,2.987 -23.812,8.01c-0.063,-0.002 -0.125,-0.01 -0.188,-0.01l-16,0c-10.534,0 -19.471,6.967 -22.446,16.535c-18.724,3.087 -33.054,19.38 -33.054,38.965l0,9.734c-9.29,3.138 -16,11.93 -16,22.266s6.71,19.128 16,22.266l0,27.469c-9.29,3.138 -16,11.93 -16,22.266l0,6.23l-7.208,14.416c-1.056,2.111 -1.056,4.597 0,6.708l8,16c1.852,3.705 6.356,5.208 10.062,3.354c3.705,-1.852 5.207,-6.357 3.354,-10.062l-6.323,-12.647l4.25,-8.5l22.729,0l4.25,8.5l-6.323,12.646c-1.853,3.705 -0.351,8.21 3.354,10.062c1.077,0.539 2.221,0.793 3.348,0.793c2.751,0 5.4,-1.52 6.714,-4.147l8,-16c1.056,-2.111 1.056,-4.597 0,-6.708l-7.207,-14.416l0,-6.23c0,-10.336 -6.71,-19.128 -16,-22.266l0,-27.469c9.29,-3.138 16,-11.93 16,-22.266s-6.71,-19.128 -16,-22.266l0,-9.733c0,-11.439 7.881,-21.069 18.497,-23.753c3.348,8.901 11.946,15.253 22.003,15.253l0.5,0l0,38.859c-4.899,4.31 -8,10.619 -8,17.641c0,7.496 3.532,14.178 9.014,18.484c5.032,26.156 27.742,45.016 54.486,45.016l24.5,0l0,17.332c-9.085,1.656 -16,9.612 -16,19.168c0,10.752 8.748,19.5 19.5,19.5l136,0c10.752,0 19.5,-8.748 19.5,-19.5c0,-9.556 -6.915,-17.512 -16,-19.168l0,-17.332l24.5,0c26.745,0 49.454,-18.859 54.486,-45.017c5.482,-4.306 9.014,-10.988 9.014,-18.483c0,-7.023 -3.101,-13.332 -8,-17.641l0,-38.859l0.5,0c10.057,0 18.655,-6.352 22.003,-15.253c10.616,2.684 18.497,12.314 18.497,23.753l0,9.734c-9.29,3.138 -16,11.93 -16,22.266s6.71,19.128 16,22.266l0,27.469c-9.29,3.138 -16,11.93 -16,22.266l0,6.23l-7.208,14.416c-1.056,2.111 -1.056,4.597 0,6.708l8,16c1.853,3.705 6.356,5.208 10.062,3.354c3.705,-1.852 5.207,-6.357 3.354,-10.062l-6.323,-12.646l4.25,-8.5l22.729,0l4.25,8.5l-6.323,12.646c-1.853,3.705 -0.351,8.21 3.354,10.062c1.077,0.539 2.221,0.793 3.348,0.793c2.751,0 5.4,-1.52 6.714,-4.147l8,-16c1.057,-2.112 1.057,-4.598 0.001,-6.709zm-118.708,-405.146c4.687,0 8.5,3.813 8.5,8.5s-3.813,8.5 -8.5,8.5s-8.5,-3.813 -8.5,-8.5s3.813,-8.5 8.5,-8.5zm-232.5,8.5c0,-4.687 3.813,-8.5 8.5,-8.5s8.5,3.813 8.5,8.5s-3.813,8.5 -8.5,8.5s-8.5,-3.813 -8.5,-8.5zm-71,376.5l-17,0l0,-0.5c0,-4.687 3.813,-8.5 8.5,-8.5s8.5,3.813 8.5,8.5l0,0.5zm-8.5,-64c-4.687,0 -8.5,-3.813 -8.5,-8.5s3.813,-8.5 8.5,-8.5s8.5,3.813 8.5,8.5s-3.813,8.5 -8.5,8.5zm200,-289c59.512,0 108.371,46.451 112.244,105l-224.488,0c3.873,-58.548 52.732,-105 112.244,-105zm-128.5,128.5c0,-4.687 3.813,-8.5 8.5,-8.5l240,0c4.687,0 8.5,3.813 8.5,8.5s-3.813,8.5 -8.5,8.5l-240,0c-4.687,0 -8.5,-3.813 -8.5,-8.5zm161,23.5l0,9l-65,0l0,-9l65,0zm-65,24l65,0l0,9l-65,0l0,-9zm-119.5,49c-4.687,0 -8.5,-3.813 -8.5,-8.5s3.813,-8.5 8.5,-8.5l4.125,0c-2.32,5.025 -3.625,10.612 -3.625,16.5l0,0.5l-0.5,0zm296.5,71.5c0,4.687 -3.813,8.5 -8.5,8.5l-272,0c-4.687,0 -8.5,-3.813 -8.5,-8.5s3.813,-8.5 8.5,-8.5l272,0c4.687,0 8.5,3.813 8.5,8.5zm-76.5,104.5l-136,0c-2.439,0 -4.5,-2.061 -4.5,-4.5s2.061,-4.5 4.5,-4.5l136,0c2.439,0 4.5,2.061 4.5,4.5s-2.06,4.5 -4.5,4.5zm-11.5,-24l-113,0l0,-17l113,0l0,17zm39.5,-32l-192,0c-16.41,0 -31.167,-10.277 -37.378,-25l266.756,0c-6.211,14.724 -20.966,25 -37.378,25zm40,-72l-272,0c-0.168,0 -0.333,0.009 -0.5,0.013l0,-48.513c0,-13.509 10.991,-24.5 24.5,-24.5l224,0c13.509,0 24.5,10.991 24.5,24.5l0,48.513c-0.167,-0.004 -0.332,-0.013 -0.5,-0.013zm16,-48l-0.5,0l0,-0.5c0,-5.888 -1.305,-11.475 -3.625,-16.5l4.125,0c4.687,0 8.5,3.813 8.5,8.5s-3.813,8.5 -8.5,8.5zm48,47c4.687,0 8.5,3.813 8.5,8.5s-3.813,8.5 -8.5,8.5s-8.5,-3.813 -8.5,-8.5s3.813,-8.5 8.5,-8.5zm0,72c4.687,0 8.5,3.813 8.5,8.5l0,0.5l-17,0l0,-0.5c0,-4.687 3.813,-8.5 8.5,-8.5z"/>
    <path stroke="null" fill="#ffffff" id="svg_9" d="m3354.876344,2475.56715l-72,0c-15.164,0 -27.5,12.336 -27.5,27.5s12.336,27.5 27.5,27.5l72,0c15.164,0 27.5,-12.336 27.5,-27.5s-12.336,-27.5 -27.5,-27.5zm-84.5,27.5c0,-6.893 5.607,-12.5 12.5,-12.5s12.5,5.607 12.5,12.5s-5.607,12.5 -12.5,12.5s-12.5,-5.607 -12.5,-12.5zm84.5,12.5l-47.518,0c1.924,-3.753 3.018,-8 3.018,-12.5s-1.093,-8.747 -3.018,-12.5l47.518,0c6.893,0 12.5,5.607 12.5,12.5s-5.607,12.5 -12.5,12.5z"/>
    <path stroke="null" fill="#ffffff" id="svg_10" d="m3230.876344,2491.56715c-4.142,0 -7.5,3.358 -7.5,7.5l0,8c0,4.142 3.358,7.5 7.5,7.5s7.5,-3.358 7.5,-7.5l0,-8c0,-4.142 -3.358,-7.5 -7.5,-7.5z"/>
    <path stroke="null" fill="#ffffff" id="svg_11" d="m3406.876344,2491.56715c-4.142,0 -7.5,3.358 -7.5,7.5l0,8c0,4.142 3.358,7.5 7.5,7.5s7.5,-3.358 7.5,-7.5l0,-8c0,-4.142 -3.358,-7.5 -7.5,-7.5z"/>
   </g>
   <g stroke="null" transform="matrix(0.4820433746521777,0,0,0.4820433746521777,-1483.3424108533654,-1054.915292202495) " id="svg_12"/>
   <g stroke="null" transform="matrix(0.4820433746521777,0,0,0.4820433746521777,-1483.3424108533654,-1054.915292202495) " id="svg_13"/>
   <g stroke="null" transform="matrix(0.4820433746521777,0,0,0.4820433746521777,-1483.3424108533654,-1054.915292202495) " id="svg_14"/>
   <g stroke="null" transform="matrix(0.4820433746521777,0,0,0.4820433746521777,-1483.3424108533654,-1054.915292202495) " id="svg_15"/>
   <g stroke="null" transform="matrix(0.4820433746521777,0,0,0.4820433746521777,-1483.3424108533654,-1054.915292202495) " id="svg_16"/>
   <g stroke="null" transform="matrix(0.4820433746521777,0,0,0.4820433746521777,-1483.3424108533654,-1054.915292202495) " id="svg_17"/>
   <g stroke="null" transform="matrix(0.4820433746521777,0,0,0.4820433746521777,-1483.3424108533654,-1054.915292202495) " id="svg_18"/>
   <g stroke="null" transform="matrix(0.4820433746521777,0,0,0.4820433746521777,-1483.3424108533654,-1054.915292202495) " id="svg_19"/>
   <g stroke="null" transform="matrix(0.4820433746521777,0,0,0.4820433746521777,-1483.3424108533654,-1054.915292202495) " id="svg_20"/>
   <g stroke="null" transform="matrix(0.4820433746521777,0,0,0.4820433746521777,-1483.3424108533654,-1054.915292202495) " id="svg_21"/>
   <g stroke="null" transform="matrix(0.4820433746521777,0,0,0.4820433746521777,-1483.3424108533654,-1054.915292202495) " id="svg_22"/>
   <g stroke="null" transform="matrix(0.4820433746521777,0,0,0.4820433746521777,-1483.3424108533654,-1054.915292202495) " id="svg_23"/>
   <g stroke="null" transform="matrix(0.4820433746521777,0,0,0.4820433746521777,-1483.3424108533654,-1054.915292202495) " id="svg_24"/>
   <g stroke="null" transform="matrix(0.4820433746521777,0,0,0.4820433746521777,-1483.3424108533654,-1054.915292202495) " id="svg_25"/>
   <g stroke="null" transform="matrix(0.4820433746521777,0,0,0.4820433746521777,-1483.3424108533654,-1054.915292202495) " id="svg_26"/>
  </g>
 </g>
</svg>